epoch,acc,loss,lr,val_acc,val_loss
0,0.9792965430683965,0.0767823218671071,0.001,0.9799313142123653,0.09807427365850385
0,0.9794010664329613,0.07588459076017098,0.001,0.9789814310902469,0.08283581393730308
0,0.9792942168754015,0.07971767966064108,0.001,0.9800398194461788,0.07479013607862893
0,0.9793268345996816,0.07763094163631495,0.001,0.9782465002952365,0.12394268272803464
0,0.9780749388954976,0.22320422080620367,0.8589477461416428,23.512407054243116,0.08872606271374502,0.001,7.5420643590452805,0.9789804514394987,0.2994977462182351,0.8949450478641265,22.385079228112456,0.0844719913301118,7.757501695790422
1,0.9807960880812149,0.3258701804003755,0.8993939691646584,16.37894097897706,0.06180732373647169,0.001,7.521182127100301,0.9782759281473422,0.34249302236312024,0.9027484665223218,25.19558790714369,0.09507768525989778,7.8008301734924315
2,0.9809860238920964,0.3522011721466108,0.9042870500362576,16.091621590127524,0.06072309942613835,0.001,7.519286562396493,0.9805296936166396,0.36336604887192403,0.9067912114869564,20.482782815355772,0.07729351402969535,7.787109929705979
3,0.9811442051677562,0.371816866175634,0.908420525886193,15.934233743449774,0.060129183104677374,0.001,7.545618480542893,0.9786013578056195,0.377815390070644,0.9100345607197613,21.137787642172718,0.07976523230382061,7.488136471739603
4,0.9812830497492138,0.3829160298644051,0.9112538936662845,15.735097922773996,0.059377727487663005,0.001,7.554790177232568,0.9805764258454699,0.3887849342385563,0.9128183250033527,17.21172709158801,0.06494991275558779,7.6077064881631
5,0.9813433792927941,0.39396746319727993,0.914174386881965,15.681935944371533,0.05917711584909794,0.001,7.559930075357514,0.9791379681420982,0.39372713609572946,0.9142264229442002,29.368744288453268,0.11082544713665586,7.359035781545376
6,0.9815237871190616,0.3944100210485741,0.9144524438675001,15.504930934498946,0.05850917234182458,0.001,7.573532458445204,0.9804362205190396,0.39848295433805625,0.9151214136989838,20.0235125655428,0.07556042174953934,7.707232913620975
7,0.9816753309914524,0.402375838839633,0.9158333074223117,15.272437291147877,0.05763183782659519,0.001,7.584422199197036,0.97992557768428,0.40536742538487147,0.9159328894877653,25.12643756691469,0.09481673891391229,7.904539599987345
8,0.9817896381375038,0.40842614858569765,0.9160940955521035,15.083427728585693,0.05691859438122892,0.001,7.598117052802056,0.9783919015061965,0.4105032269014131,0.9161447129118333,28.123887900256236,0.10612786922159545,7.765798689466004
9,0.9819247273664563,0.4127599618771023,0.9163350954504793,14.964134829452679,0.05646843215694143,0.001,7.606097981840962,0.9748797025155583,0.4128197824736254,0.9161840649919772,34.691946229147256,0.13091299574856363,7.832939854018185
10,0.9819919855886617,0.4133633337758215,0.9162332499199597,14.805685326599503,0.05587050942126324,0.001,7.6157273159262,0.9719923918400336,0.41232373364474795,0.9157137889380849,44.04560091911106,0.16620980126595278,7.945810128133231
11,0.9821524783509569,0.4115991791264152,0.915375808180222,14.622486321971529,0.0551791921697382,0.001,7.627084599177383,0.9789475598466506,0.41370397292145894,0.9154335511933773,30.39927194227866,0.11471422507402,7.803619688366531
12,0.9822165585098567,0.4157786571098652,0.915511834906846,14.54761242339453,0.05489664883587552,0.001,7.640440801522584,0.9785563529084582,0.4176191456820987,0.9155214682631536,33.04002312476482,0.12467932152912158,7.878731748598431
13,0.9823880191423056,0.4195649103304773,0.9156208556821641,14.410767831498166,0.05438025384756106,0.001,7.654472226876979,0.9776752720185377,0.42124971911447856,0.9158664540413323,30.45155120639626,0.11491150110276467,7.841152719620171
14,0.982368679302138,0.4228731658576706,0.9161222658935724,14.37105202534437,0.05423038269064088,0.001,7.65535189265967,0.9746148563306266,0.4235680484990461,0.9163272093195434,33.78703023928021,0.1274982139331485,7.906277581311147
15,0.9825770876698147,0.42440710763372114,0.9166100004978993,14.088352135598663,0.05316359024008459,0.001,7.663964010165843,0.9751324302559599,0.42550569942238137,0.9169971477001085,30.19879148990736,0.11395769316122073,7.840873820628595
16,0.9827234373209006,0.4269085399852663,0.9174215500077375,13.96187773781637,0.05268632785166303,0.001,7.668390754021856,0.9741457574958101,0.4276925864569638,0.9176657021592517,35.13562734061425,0.13258726077342253,7.945408931347209
17,0.9827993534813695,0.42861604174887,0.9179479596828763,13.92499279397763,0.05254713927770294,0.001,7.6684443699158225,0.9719733476638794,0.4287878227343253,0.9181154848238744,38.259864940118355,0.14437683399664153,7.957373006628194
18,0.9832378210739107,0.42965544765356495,0.9184299403758673,13.20955167399946,0.04984736101809998,0.00020000001,7.682532942961655,0.9768391942759173,0.4319011386928208,0.9190825380316568,26.763438002560118,0.10099409556170122,7.811423908023659
19,0.9834696102332003,0.43420443144204246,0.9197565057087462,12.898278760753191,0.048672746117210036,0.00020000001,7.700258926363005,0.9762316144934488,0.4363417086251285,0.9203699779073032,27.701050014670837,0.10453225401563382,7.830993304996316
20,0.9835619790629002,0.43850475864978317,0.921003402136611,12.739686938367313,0.04807428599736407,0.00020000001,7.7086686915121385,0.9763527881114855,0.44056533585994617,0.9216053033093794,27.58650018534529,0.10409999210900123,7.831846501411648
21,0.9836863901879039,0.44264608588997795,0.922203674628632,12.603673265985748,0.04756102678191823,0.00020000001,7.717322885365509,0.9774381211044592,0.4449158052238849,0.9228131856393377,24.794834962897344,0.09356540740903364,7.774342760908494
22,0.983770676006786,0.44721351766480527,0.9234131537745434,12.489250137001118,0.04712924099065165,0.00020000001,7.721724323805823,0.9743777101193,0.4486463364658006,0.9238495033815366,31.463536617734018,0.11873031589416189,7.874462554651663
23,0.9838774784342803,0.45027249860460805,0.924342524017781,12.384108285663926,0.04673247926713978,0.00020000001,7.724374440582072,0.9763372104102318,0.4521236322341709,0.9248634054026472,27.060010087599448,0.10211323674665679,7.802643040998267
24,0.983955415293881,0.454054413985834,0.9253715430277724,12.284852621997222,0.04635792941819333,0.00020000001,7.732814234070686,0.976055054927091,0.45581102939920687,0.9258441463522955,27.914286286240323,0.10533692061627677,7.840085086472538
